kimo;01000;Bourg-en-Bresse;46.2051192;5.2250324
angerona;01000;Bourg-en-Bresse;46.2051192;5.2250324
jory;01210;Versonnex;46.3005;6.09521
reiner;01210;Versonnex;46.3005;6.09521
nunzio;01600;Trévoux;45.9410123;4.7733198
archippos;02200;Villeneuve-Saint-Germain;49.38;3.3594444
farag;02310;Crouttes-sur-Marne;48.9796;3.24001
kerneels;03200;Vichy;46.1239268;3.4203712
orazio;06140;Tourrettes-sur-Loup;43.7158031;7.058912
cleon;06640;Saint-Jeannet;43.7476474;7.1427738
terri;06790;Aspremont;43.7832717;7.2440882
arzu;08370;Margut;49.58407;5.26019
wen;09100;Pamiers;43.1147515;1.6082177
arron;09100;Pamiers;43.1147515;1.6082177
kortney;09200;Saint-Girons;42.9841865;1.1464455
isibéal;09230;Sainte-Croix-Volvestre;43.1263293;1.1738659
paulene;09600;Montbel;42.9757839;1.9770635
oni;10000;Troyes;48.2971626;4.0746257
orli;11300;Limoux;43.0538068;2.2176533
gena;11300;Limoux;43.0538068;2.2176533
Wuilliam;12100;Millau;44.1006693;3.0777594
Gianni;12130;Sainte-Eulalie-d'Olt;44.4644863;2.9466527
aeron;12200;Villefranche-de-Rouergue;44.3517623;2.0375431
audley;12330;Salles-la-Source;44.4366137;2.5144663
jules;12400;Calmels-et-le-Viala;43.9461397;2.7529465
gene;13001;Marseille;43.2961743;5.3699525
keith;13004;Marseille;43.2961743;5.3699525
Izia;13004;Marseille;43.2961743;5.3699525
Salomée;13004;Marseille;43.2961743;5.3699525
ríona;13005;Marseille;43.2961743;5.3699525
dev;13005;Marseille;43.2961743;5.3699525
Liliane;13006;Marseille;43.2961743;5.3699525
eowyn;13011;Marseille;43.2961743;5.3699525
Lili;13100;Aix-en-Provence;43.5298424;5.4474738
Tal;13100;Aix-en-Provence;43.5298424;5.4474738
efisio;13150;Tarascon;43.8053654;4.6585115
gwil;13250;Saint-Chamas;43.5497879;5.0341639
giorgino;13300;Salon-de-Provence;43.6405237;5.0980225
andries;13350;Charleval;43.7198925;5.2450353
lally;13500;Martigues;43.4057279;5.0548176
alejandro;13530;Trets;43.4469081;5.6851425
athenias;13530;Trets;43.4469081;5.6851425
hades;13600;La Ciotat;43.1758591;5.6062495
suibne;14000;Caen;49.1828008;-0.3690815
steffie;14000;Caen;49.1828008;-0.3690815
till;14140;Auquainville;49.0575;0.24
vercingetorix;14200;Hérouville-Saint-Clair;49.2031097;-0.3353513
Beya;14340;Cambremer;49.1517477;0.0479889
arn;14600;Honfleur;49.4197222;0.2338889
damhnait;14630;Cagny;49.1465743;-0.254525
severin;17000;La Rochelle;46.1591126;-1.1520434
ferrer;17000;La Rochelle;46.1591126;-1.1520434
celino;17270;Montguyon;45.2161111;-0.1872222
Evann;17300;Rochefort;45.9442642;-0.9690432
mahala;17470;Nuaillé-sur-Boutonne;46.0130741;-0.4348113
fishke;17520;Celles;45.6052829;-0.3718844
vivian;18110;Saint-Martin-d'Auxigny;47.2041215;2.4175182
caoilainn;19190;Le Chastang;45.1723833;1.7342495
ragnhildur;19190;Aubazine;45.1742772;1.6700169
Mahamadou;21000;Dijon;47.3215806;5.0414701
margaretta;21000;Dijon;47.3215806;5.0414701
Jason;21000;Dijon;47.3215806;5.0414701
britta;21140;Semur-en-Auxois;47.4902149;4.3328705
reene;21800;Chevigny-Saint-Sauveur;47.2977106;5.1382218
elfa;22000;Saint-Brieuc;48.5141594;-2.7602707
yevgeniya;22370;Pléneuf-Val-André;48.5839267;-2.535957
constancia;22520;Binic;48.6007887;-2.8248754
garey;22600;Trévé;48.212514;-2.795212
clinton;23230;Bord-Saint-Georges;46.2604737;2.2967038
Ari;24100;Bergerac;44.8534568;0.487531
ariston;24200;Sarlat-la-Canéda;44.8879431;1.2161321
kazia;24330;Saint-Crépin-d'Auberoche;45.1239687;0.8902689
gustaf;24360;Champniers-et-Reilhac;45.6733333;0.7319444
svarog;24400;Mussidan;45.0369509;0.3642959
jytte;24450;Saint-Pierre-de-Frugie;45.5734979;0.99794
amadi;38100;Grenoble;45.1875602;5.7357819
Youcef;24600;Ribérac;45.2477778;0.3397222
timeus;24750;Trélissac;45.1970172;0.7835042
nelle;25000;Besançon;47.2379985;6.0243568
jaromil;25290;Ornans;47.1067818;6.1454937
esdras;26000;Valence;44.9332277;4.8920811
dorit;26120;Combovin;44.8754043;5.0766768
atefeh;26120;Montmeyran;44.8326866;4.9772114
geoff;26150;Die;44.7533712;5.3689136
Francis;26170;Vercoiran;44.3018737;5.3420829
gülbahar;26260;Bren;45.1352886;4.9480231
sorcha;26750;Montmiral;45.1549;5.14971
mór;26750;Montmiral;45.1549;5.14971
raniero;27190;Le Fidelaire;48.94962;0.81384
tzufit;29200;Brest;48.3905283;-4.4860088
yonca;29200;Brest;48.3905283;-4.4860088
Arthur;29770;Audierne;48.0231226;-4.5397715
taneka;29800;Landerneau;48.4514803;-4.2557901
gisella;29880;Plouguerneau;48.6050152;-4.5023211
panfilo;29910;Trégunc;47.854485;-3.8514269
sebastiano;30140;Thoiras;44.065;3.92741
cristina;30250;Villevieille;43.7887005;4.0932027
willie;30430;Barjac;44.3075079;4.3464638
deshaun;30480;Cendras;44.1566616;4.0552764
lex;30770;Aumessas;43.991198;3.5036284
stanimir;31200;Toulouse;43.6044622;1.4442469
domhnall;31270;Cugnaux;43.5369936;1.3457537
sayuri;31300;Toulouse;43.6044622;1.4442469
fidda;31300;Toulouse;43.6044622;1.4442469
Cleophee;31350;Boulogne-sur-Gesse;43.2908;0.646418
biagio;31370;Sabonnères;43.4658;1.06267
kumari;31400;Toulouse;43.6044622;1.4442469
Lina;31400;Toulouse;43.6044622;1.4442469
Jean-François;31400;Toulouse;43.6044622;1.4442469
Rami;31400;Toulouse;43.6044622;1.4442469
Ania;31500;Toulouse;43.6044622;1.4442469
Jim;31500;Toulouse;43.6044622;1.4442469
dawson;31500;Toulouse;43.6044622;1.4442469
lakeshia;31520;Ramonville-Saint-Agne;43.5460533;1.4749101
keegan;31650;Saint-Orens-de-Gameville;43.5519847;1.5339526
arina;32000;Auch;43.6463558;0.5850507
evette;32000;Auch;43.6463558;0.5850507
adelmar;32550;Pavie;43.6108333;0.5927778
plato;32800;Eauze;43.8613741;0.1007959
yankel;33000;Bordeaux;44.841225;-0.5800364
bijay;33400;Talence;44.8088438;-0.5879629
jerónimo;33410;Cadillac;44.6360817;-0.3173533
maura;33490;Semens;44.61293;-0.23998
themistocles;33600;Pessac;44.805615;-0.6308396
cole;33800;Bordeaux;44.841225;-0.5800364
anneli;33800;Bordeaux;44.841225;-0.5800364
ananias;34150;Arboras;43.7108211;3.4856119
susanita;34200;Sète;43.4014434;3.6959771
Nelya;34230;Paulhan;43.5418008;3.4604451
quintella;34560;Villeveyrac;43.5017177;3.607502
clíodhna;34660;Cournonsec;43.5482372;3.6999915
agrippa;34680;Saint-Georges-d'Orques;43.6099831;3.7806939
Thibault;35000;Rennes;48.1113387;-1.6800198
Ferdinand;35000;Rennes;48.1113387;-1.6800198
nhung;35135;Chantepie;48.088155;-1.6171482
fechín;35170;Bruz;48.0245814;-1.7471629
anoush;35170;Bruz;48.0245814;-1.7471629
juniper;35170;Bruz;48.0245814;-1.7471629
brendon;35200;Rennes;48.1113387;-1.6800198
Nabil;35260;Cancale;48.6771721;-1.8506953
farrell;35310;Chavagne;48.0539088;-1.7881749
chau;35400;Saint-Malo;48.6454528;-2.015418
deòiridh;35400;Saint-Malo;48.6454528;-2.015418
gergely;35400;Saint-Malo;48.6454528;-2.015418
sharla;35400;Saint-Malo;48.6454528;-2.015418
halstein;35520;La Chapelle-des-Fougeretz;48.178029;-1.7341152
teman;35550;Sixt-sur-Aff;47.7760854;-2.0803355
Carlotta;35580;Saint-Senoux;47.9049712;-1.7881315
burt;35700;Rennes;48.1113387;-1.6800198
aphrodisia;36000;Châteauroux;46.8047;1.6957099
May;37320;Cormery;47.2672172;0.8389665
silke;37400;Amboise;47.4110351;0.983698
sosimo;37530;Pocé-sur-Cisse;47.4432628;0.991226
adah;37550;Saint-Avertin;47.3577;0.739923
samuli;38000;Grenoble;45.1875602;5.7357819
ferdie;38000;Grenoble;45.1875602;5.7357819
Elior;38100;Grenoble;45.1875602;5.7357819
aonghas;38100;Grenoble;45.1875602;5.7357819
Nadir;38120;Fontanil-Cornillon;45.2556949;5.6654815
carmo;38121;Reventin-Vaugris;45.4669482;4.8412101
ralf;38240;Meylan;45.2092471;5.7811983
lorens;38290;La Verpillière;45.632836;5.1473108
tommi;38320;Eybens;45.1524;5.74812
ludmilla;38410;Saint-Martin-d'Uriage;45.1507233;5.8383075
midori;38470;Varacieux;45.2327;5.33743
Calixte;38500;La Buisse;45.3333031;5.6203141
Sébastien;38500;La Buisse;45.3333031;5.6203141
ivor;38530;Barraux;45.4337691;5.9773523
ianthina;38660;La Terrasse;45.3240258;5.9309164
rahat;39800;Poligny;46.8354661;5.7062223
eimhir;39800;Poligny;46.8354661;5.7062223
nadya;40150;Soorts-Hossegor;43.6584045;-1.4262382
delia;40530;Labenne;43.5977;-1.42811
mandeep;41400;Pontlevoy;47.38812;1.25279
jabir;42120;Le Coteau;46.0205;4.09203
oana;42240;Saint-Paul-en-Cornillon;45.3963;4.23841
aleksandrina;42600;Montbrison;45.6072875;4.0627318
bronislawa;42830;Saint-Priest-la-Prugne;45.959;3.75206
brigida;43120;Monistrol-sur-Loire;45.2926341;4.1727546
gautama;44000;Nantes;47.2186371;-1.5541362
tamera;44000;Nantes;47.2186371;-1.5541362
benno;44000;Nantes;47.2186371;-1.5541362
anicetus;44000;Nantes;47.2186371;-1.5541362
Giacomo;44000;Nantes;47.2186371;-1.5541362
Pacôme;44100;Nantes;47.2186371;-1.5541362
lilias;44130;Le Gâvre;47.5205882;-1.7479881
vic;44150;Ancenis;47.3657074;-1.1761744
damion;44200;Nantes;47.2186371;-1.5541362
eugenio;44290;Guémené-Penfao;47.6294113;-1.8328831
heber;44300;Nantes;47.2186371;-1.5541362
Sebastien;44300;Nantes;47.2186371;-1.5541362
yitzhak;44300;Nantes;47.2186371;-1.5541362
cort;44390;Les Touches;47.4423506;-1.4313813
flo;44640;Saint-Jean-de-Boiseau;47.1953115;-1.7248714
rónán;44700;Orvault;47.2711217;-1.623206
rizwan;44980;Sainte-Luce-sur-Loire;47.2493864;-1.4865339
gregor;45800;Saint-Jean-de-Braye;47.9200018;1.9737186
madonna;46000;Cahors;44.4495;1.4364999
zenon;46300;Le Vigan;44.7413611;1.4341858
Nolan;49000;Angers;47.4739884;-0.5515588
stafford;49000;Angers;47.4739884;-0.5515588
manola;49000;Angers;47.4739884;-0.5515588
jacintha;49100;Angers;47.4739884;-0.5515588
farrah;49100;Angers;47.4739884;-0.5515588
ava;49300;Cholet;47.0617293;-0.8801349
finnbar;49350;Saint-Georges-des-Sept-Voies;47.35569;-0.3040275
Youness;50270;Sortosville-en-Beaumont;49.4239242;-1.7156573
zosimos;50400;Granville;48.8376284;-1.5959213
Quitterie;51190;Avize;48.9722072;4.0100647
bryson;54000;Nancy;48.6937223;6.1834097
micheal;54000;Nancy;48.6937223;6.1834097
yaroslava;54450;Reillon;48.59903;6.7438212
oleg;54670;Custines;48.791174;6.1422309
filippo;54820;Marbache;48.7967416;6.0996071
jen;55100;Verdun;49.1589278;5.3867277
inigo;56000;Vannes;47.6586772;-2.7599079
cecelia;56200;Cournon;47.7462172;-2.1050617
tamson;56400;Auray;47.6664485;-2.9833718
raven;56400;Brech;47.721585;-2.9969193
colombina;56460;Lizio;47.8631405;-2.5257091
darina;56670;Riantec;47.7119271;-3.3088391
Antoine;59179;Fenain;50.367;3.29915
Cosima;60200;Compiègne;49.4179497;2.8263171
halvar;60300;Senlis;49.2065404;2.5846582
april;60350;Pierrefonds;49.3474567;2.9781976
temitope;62200;Boulogne-sur-Mer;50.7259985;1.6118771
sumiko;63320;Montaigut-le-Blanc;45.5851673;3.0903356
nail;63450;Saint-Saturnin;45.6599836;3.0922454
Latifa;64000;Pau;43.2957547;-0.3685668
juro;64140;Billère;43.3030044;-0.3905556
elkanah;64230;Lescar;43.3333773;-0.4357266
dylis;64440;Louvie-Soubiron;42.9992256;-0.4136462
kristeen;65000;Tarbes;43.232858;0.0781021
aeronwen;65130;Bourg-de-Bigorre;43.0908969;0.2601293
polly;66000;Perpignan;42.6985304;2.8953121
inmaculada;67170;Brumath;48.7309406;7.708107
lucinda;68000;Colmar;48.0777517;7.3579641
yaffa;68100;Mulhouse;47.7467;7.3389275
Liliana;68260;Kingersheim;47.7923002;7.3386856
émile;68290;Masevaux;47.7749471;6.9958272
elikapeka;69002;Lyon;45.7578137;4.8320114
roxie;69300;Caluire-et-Cuire;45.7969952;4.8423304
hilda;69440;Chaussan;45.6332576;4.639603
lára;69480;Morancé;45.8977165;4.7003052
chi;69500;Bron;45.7337532;4.9092352
can;69520;Grigny;45.6099696;4.7881958
tertius;69570;Dardilly;45.8064992;4.7537701
christabel;71850;Charnay-lès-Mâcon;46.3098212;4.784542
chryssa;72000;Le Mans;48.0073498;0.1967379
ornat;72220;Saint-Mars-d'Outillé;47.8706856;0.3322536
abdullah;72600;Contilly;48.4009315;0.3693627
gib;73000;Chambéry;45.5662672;5.9203636
teasag;73000;Chambéry;45.5662672;5.9203636
Khady;73470;Novalaise;45.5951342;5.7704482
svanhild;74140;Loisin;46.2922313;6.3099899
pancrazio;74200;Thonon-les-Bains;46.3731303;6.4779448
ælred;74500;Lugrin;46.402458;6.6640618
Yvan;74520;Vulbens;46.1011166;5.9311875
wayland;75001;Paris;48.8566969;2.3514616
aristides;75005;Paris;48.8566969;2.3514616
libby;75012;Paris;48.8566969;2.3514616
geneviève;75016;Paris;48.8566969;2.3514616
heulwen;75018;Paris;48.8566969;2.3514616
geronimo;75019;Paris;48.8566969;2.3514616
lal;75019;Paris;48.8566969;2.3514616
antonella;75020;Paris;48.8566969;2.3514616
mihajlo;75116;Paris;48.8566969;2.3514616
gayle;76200;Dieppe;49.9246182;1.0791444
barnabas;76380;Canteleu;49.4507987;1.0352069
nike;76530;Grand-Couronne;49.3534994;1.0043489
raibeart;77210;Avon;48.4048867;2.7207225
althea;77500;Chelles;48.8783804;2.590549
Avital;77810;Thomery;48.4090286;2.784838
Susanne;77930;Saint-Sauveur-sur-École;48.4982214;2.5492856
melville;78000;Versailles;48.8035403;2.1266886
tabitha;78000;Versailles;48.8035403;2.1266886
eleonor;78125;Orcemont;48.5878617;1.8104848
andrej;78500;Sartrouville;48.9409016;2.1585037
delphia;78500;Sartrouville;48.9409016;2.1585037
zula;78600;Le Mesnil-le-Roi;48.9265056;2.12277
Gabin;78960;Voisins-le-Bretonneux;48.7586644;2.0510182
gafar;79000;Niort;46.3239455;-0.4645212
Emeline;79100;Thouars;46.9790193;-0.2153741
holger;79210;Prin-Deyrançon;46.2203095;-0.6359362
esperanza;79700;Mauléon;46.9227947;-0.7501814
greig;80250;Sourdon;49.7098928;2.397595
miela;80800;Marcelcave;49.8482929;2.5740011
cy;80800;Marcelcave;49.8482929;2.5740011
karenza;81000;Albi;43.9277552;2.147899
gofraidh;81000;Albi;43.9277552;2.147899
epifanio;81500;Lavaur;43.6989332;1.815187
Gaia;83130;La Garde;43.1249185;6.0128532
quanah;83400;Hyères;43.1202573;6.1301614
juliusz;83440;Fayence;43.6238666;6.6949071
denton;84160;Cadenet;43.7346782;5.3737893
balder;84210;Pernes-les-Fontaines;43.9984627;5.059255
dana;84240;La Bastide-des-Jourdans;43.7856587;5.634986
eiluned;84250;Le Thor;43.928823;4.9945784
nicolau;84370;Bédarrides;44.0407425;4.8982969
osborn;84400;Rustrel;43.9242848;5.4843752
lucienne;84400;Apt;43.8757936;5.3970648
antono;84440;Robion;43.8440906;5.1123102
lauro;84480;Bonnieux;43.8236191;5.3077869
mu;84800;Lagnes;43.8941311;5.1148619
Brahim;84800;Lagnes;43.8941311;5.1148619
praxiteles;85170;Dompierre-sur-Yon;46.7369838;-1.3904471
patti;85170;Dompierre-sur-Yon;46.7369838;-1.3904471
odalis;85300;Challans;46.847943;-1.8773787
wyatt;86000;Poitiers;46.5802596;0.340196
tiburcio;86000;Poitiers;46.5802596;0.340196
severino;86000;Poitiers;46.5802596;0.340196
philbert;86000;Poitiers;46.5802596;0.340196
sakari;86110;Mazeuil;46.7879846;0.0834917
ervin;86420;Monts-sur-Guesnes;46.919212;0.2111821
Eleonore;86580;Biard;46.5758275;0.30807
Eugenie;87100;Limoges;45.8354243;1.2644847
Fanny;87370;Jabreilles-les-Bordes;46.0184838;1.517044
malachy;88380;Archettes;48.1247246;6.5339545
gianluca;88630;Moncel-sur-Vair;48.4214;5.7017
crystal;89000;Auxerre;47.7961287;3.570579
korbin;89100;Saint-Martin-du-Tertre;48.2121679;3.257737
merletta;89113;Fleury-la-Vallée;47.8675536;3.4471728
eoforhild;89113;Fleury-la-Vallée;47.8675536;3.4471728
wladyslaw;89130;Moulins-sur-Ouanne;47.7078156;3.3361977
mordikai;89130;Mézilles;47.7009023;3.1719604
wieslawa;91120;Palaiseau;48.7144587;2.2453842
tor;91120;Palaiseau;48.7144587;2.2453842
stef;91120;Palaiseau;48.7144587;2.2453842
Marthe;91230;Montgeron;48.7038873;2.4605107
africa;91300;Massy;48.7312197;2.2713702
kiarra;91430;Vauhallan;48.734404;2.2057643
Gabriel;92160;Antony;48.753554;2.2959423
rüdiger;92400;Courbevoie;48.8953328;2.2561602
rufina;92800;Puteaux;48.8841522;2.2368863
leeann;92800;Puteaux;48.8841522;2.2368863
urjasz;93100;Montreuil;48.8623357;2.4412184
tullia;93100;Montreuil;48.8623357;2.4412184
jacoba;93100;Montreuil;48.8623357;2.4412184
arden;93110;Rosny-sous-Bois;48.8716626;2.4875193
wilmot;93150;Le Blanc-Mesnil;48.9385489;2.4631476
gervaise;93190;Livry-Gargan;48.917335;2.5298854
carmelita;93330;Neuilly-sur-Marne;48.8565557;2.5290045
hasan;94120;Fontenay-sous-Bois;48.8490721;2.4749347
estee;94120;Fontenay-sous-Bois;48.8490721;2.4749347
Kate;94130;Nogent-sur-Marne;48.8388009;2.4917292
Mayar;94140;Alfortville;48.8051624;2.4197113
frazier;94160;Saint-Mandé;48.8432633;2.4185126
bassam;94170;Le Perreux-sur-Marne;48.840627;2.5077111
naoko;94200;Ivry-sur-Seine;48.8122302;2.3872525
howie;94200;Ivry-sur-Seine;48.8122302;2.3872525
agamemnon;94300;Vincennes;48.8474508;2.4396714
issur;94320;Thiais;48.7643664;2.391024
jehoshaphat;94600;Choisy-le-Roi;48.7630238;2.4093664
meical;94600;Choisy-le-Roi;48.7630238;2.4093664
nasim;94800;Villejuif;48.7921098;2.3633048
reimund;95000;Pontoise;49.0508845;2.1008067
gianmaria;95190;Goussainville;49.0323168;2.4733628
orsolya;95230;Soisy-sous-Montmorency;48.9875044;2.3002885
matrona;95310;Saint-Ouen-l'Aumône;49.044765;2.1059841
Maïmouna;95710;Ambleville;49.1478623;1.6965871
ceri;24420;Savignac-les-Églises;45.2740403;0.9147818
brady;29420;Mespaul;48.61774;-4.021821
sergius;06480;La Colle-sur-Loup;43.6857041;7.0976053
Jibril;38080;Saint-Alban-de-Roche;45.5960009;5.2248079
stamatia;17260;Gémozac;45.5688319;-0.6747673
indrani;31000;Toulouse;43.6044622;1.4442469
xanthe;66200;Elne;42.6015895;2.9703352
netta;66200;Elne;42.6015895;2.9703352
marjaana;76570;Limésy;49.6116823;0.9245242
ferran;75015;Paris;48.8566969;2.3514616
radoslav;44190;Clisson;47.0877218;-1.2817422
harland;74330;Lovagny;45.9040724;6.0323984
steen;71400;Autun;46.9510313;4.2989478
Emi;94400;Vitry-sur-Seine;48.7876;2.39164
euthymius;44160;Sainte-Anne-sur-Brivet;47.4596949;-2.005667
preben;44160;Sainte-Anne-sur-Brivet;47.4596949;-2.005667
bettina;31190;Labruyère-Dorsa;43.4066568;1.4717453
naoise;69140;Rillieux-la-Pape;45.823514;4.8994366
musa;04120;Rougon;43.7989923;6.4021491
deana;11100;Narbonne;43.1837661;3.0042121
Lyna;19500;Meyssac;45.0557371;1.6741893
mabel;75011;Paris;48.8566969;2.3514616
eireen;43580;Saint-Préjet-d'Allier;44.9155665;3.6227917
teale;34410;Sauvian;43.2917;3.25476
juste;31700;Blagnac;43.6434;1.37799
dafne;62500;Saint-Omer;50.7521914;2.2540754
kaylie;31250;Revel;43.4582102;2.005589
aggie;37100;Tours;47.3900474;0.6889268
hieronymus;44210;Pornic;47.1152695;-2.1040102
violet;31180;Saint-Geniès-Bellevue;43.68255;1.4854271
Lorena;56620;Pont-Scorff;47.8347793;-3.4009664
juhana;13009;Marseille;43.2961743;5.3699525
mathew;94360;Bry-sur-Marne;48.8352872;2.5193322
Ben;94360;Bry-sur-Marne;48.8352872;2.5193322
heydar;69770;Chambost-Longessaigne;45.7736367;4.3684052
rearden;74540;Cusy;45.7650599;6.0300707
maksimilian;39000;Lons-le-Saunier;46.6739021;5.5586167
amrita;39000;Lons-le-Saunier;46.6739021;5.5586167
salima;12350;Prévinquières;44.3739469;2.2294501
metody;34120;Pézenas;43.4611777;3.4228323
Hanaé;75014;Paris;48.8566969;2.3514616
